Latent Class Analysis
…
As mentioned above, we will be removing the Domestic and Catsize variables.

Code

Zoo <- subset(Zoo, select = -c(domestic, catsize))
Zoo

# A tibble: 101 × 16
   animal  hair  feathers eggs  milk  airborne aquatic predator toothed backbone
   <chr>   <lgl> <lgl>    <lgl> <lgl> <lgl>    <lgl>   <lgl>    <lgl>   <lgl>   
 1 aardva… TRUE  FALSE    FALSE TRUE  FALSE    FALSE   TRUE     TRUE    TRUE    
 2 antelo… TRUE  FALSE    FALSE TRUE  FALSE    FALSE   FALSE    TRUE    TRUE    
 3 bass    FALSE FALSE    TRUE  FALSE FALSE    TRUE    TRUE     TRUE    TRUE    
 4 bear    TRUE  FALSE    FALSE TRUE  FALSE    FALSE   TRUE     TRUE    TRUE    
 5 boar    TRUE  FALSE    FALSE TRUE  FALSE    FALSE   TRUE     TRUE    TRUE    
 6 buffalo TRUE  FALSE    FALSE TRUE  FALSE    FALSE   FALSE    TRUE    TRUE    
 7 calf    TRUE  FALSE    FALSE TRUE  FALSE    FALSE   FALSE    TRUE    TRUE    
 8 carp    FALSE FALSE    TRUE  FALSE FALSE    TRUE    FALSE    TRUE    TRUE    
 9 catfish FALSE FALSE    TRUE  FALSE FALSE    TRUE    TRUE     TRUE    TRUE    
10 cavy    TRUE  FALSE    FALSE TRUE  FALSE    FALSE   FALSE    TRUE    TRUE    
# … with 91 more rows, and 6 more variables: breathes <lgl>, venomous <lgl>,
#   fins <lgl>, legs <dbl>, tail <lgl>, type <chr>
…
